{
    "movies": [
        {
            "id": 1,
            "img": "/img/alien.jfif",
            "title": "Alien",
            "description": "The crew of a commercial spacecraft encounter a deadly lifeform after investigating an unknown transmission.",
            "genre": "Horor"
        },
        {
            "id": 2,
            "img": "/img/batman.jpg",
            "title": "The Dark Knight",
            "description": "When the menace known as the Joker wreaks havoc and chaos on the people of Gotham, Batman must accept one of the greatest psychological and physical tests of his ability to fight injustice.",
            "genre": "Action"
        },
        {
            "id": 3,
            "img": "/img/bohemia.jfif",
            "title": "Bohemian Rhapsody",
            "description": "The story of the legendary British rock band Queen and lead singer Freddie Mercury, leading up to their famous performance at Live Aid (1985).",
            "genre": "Music"
        },
        {
            "id": 4,
            "img": "/img/dune.jpg",
            "title": "Dune",
            "description": "A noble family becomes embroiled in a war for control over the galaxy's most valuable asset while its heir becomes troubled by visions of a dark future.",
            "genre": "Action"
        },
        {
            "id": 5,
            "img": "/img/godzilla.jpg",
            "title": "Godzilla",
            "description": "The world is beset by the appearance of monstrous creatures, but one of them may be the only one who can save humanity.",
            "genre": "Sci-Fi"
        },
        {
            "id": 6,
            "img": "/img/greatestshowman.jpeg",
            "title": "The Greatest Showman",
            "description": "Celebrates the birth of show business and tells of a visionary who rose from nothing to create a spectacle that became a worldwide sensation.",
            "genre": "Drama"
        },
        {
            "id": 7,
            "img": "/img/guardians.jpg",
            "title": "Guardians of the Galaxy",
            "description": "A group of intergalactic criminals must pull together to stop a fanatical warrior with plans to purge the universe.",
            "genre": "Action"
        },
        {
            "id": 8,
            "img": "/img/inception.jpg",
            "title": "Inception",
            "description": "A thief who steals corporate secrets through the use of dream-sharing technology is given the inverse task of planting an idea into the mind of a C.E.O., but his tragic past may doom the project and his team to disaster.",
            "genre": "Sci-Fi"
        },
        {
            "id": 9,
            "img": "/img/joker.jpg",
            "title": "Joker",
            "description": "A mentally troubled stand-up comedian embarks on a downward spiral that leads to the creation of an iconic villain.",
            "genre": "Drama"
        },
        {
            "id": 10,
            "img": "/img/lotr.jpg",
            "title": "The Lord of the Rings",
            "description": "A meek Hobbit from the Shire and eight companions set out on a journey to destroy the powerful One Ring and save Middle-earth from the Dark Lord Sauron.",
            "genre": "Action"
        },
        {
            "id": 11,
            "img": "/img/prometheus.jpg",
            "title": "Prometheus",
            "description": "Following clues to the origin of mankind, a team finds a structure on a distant moon, but they soon realize they are not alone.",
            "genre": "Sci-Fi"
        },
        {
            "id": 12,
            "img": "/img/racha.jpg",
            "title": "Racha My Love",
            "description": "Georgian Movie",
            "genre": "Drama"
        },
        {
            "id": 13,
            "img": "/img/RE.jpg",
            "title": "Resident Evil",
            "description": "A special military unit fights a powerful, out-of-control supercomputer and hundreds of scientists who have mutated into flesh-eating creatures after a laboratory accident.",
            "genre": "Sci-Fi"
        },
        {
            "id": 14,
            "img": "/img/scream.jfif",
            "title": "Scream",
            "description": "25 years after a streak of brutal murders shocked the quiet town of Woodsboro, Calif., a new killer dons the Ghostface mask and begins targeting a group of teenagers to resurrect secrets from the town's deadly past.",
            "genre": "Horror"
        },
        {
            "id": 15,
            "img": "/img/shawshank.png",
            "title": "The Shawshank Redemption",
            "description": "Two imprisoned men bond over a number of years, finding solace and eventual redemption through acts of common decency.",
            "genre": "Drama"
        },
        {
            "id": 16,
            "img": "/img/spider-man.jfif",
            "title": "Spider-Man: Into the Spider-Verse",
            "description": "Teen Miles Morales becomes the Spider-Man of his universe, and must join with five spider-powered individuals from other dimensions to stop a threat for all realities.",
            "genre": "Animation"
        },
        {
            "id": 17,
            "img": "/img/starwars.jfif",
            "title": "Star Wars",
            "description": "Luke Skywalker joins forces with a Jedi Knight, a cocky pilot, a Wookiee and two droids to save the galaxy from the Empire's world-destroying battle station, while also attempting to rescue Princess Leia from the mysterious Darth Vader.",
            "genre": "Action"
        },
        {
            "id": 18,
            "img": "/img/thor.jpg",
            "title": "Thor: Ragnarok",
            "description": "Imprisoned on the planet Sakaar, Thor must race against time to return to Asgard and stop Ragnarök, the destruction of his world, at the hands of the powerful and ruthless villain Hela.",
            "genre": "Action"
        },
        {
            "id": 19,
            "img": "/img/zodiac.jpg",
            "title": "Zodiac",
            "description": "Between 1968 and 1983, a San Francisco cartoonist becomes an amateur detective obsessed with tracking down the Zodiac Killer, an unidentified individual who terrorizes Northern California with a killing spree.",
            "genre": "Drama"
        },
        {
            "id": 20,
            "img": "/img/zombieland.jpg",
            "title": "Zombieland",
            "description": "A shy student trying to reach his family in Ohio, a gun-toting bruiser in search of the last Twinkie and a pair of sisters striving to get to an amusement park join forces in a trek across a zombie-filled America.",
            "genre": "Horror"
        }
    ]
}